{
	"tileset" :
	{
		"tileSize" : "16,16",
		"tiles" :
		{
			"t1" :
			{
				"path" : "tiles/calciumtrice-outdoor/tileset.png",
				"pos" : "0,112",
				"adjacent" :
				{
					"-1,0": ["t1"],
					"1,0": ["t1"],
					"0,-1": ["t1"],
					"0,1": ["t1"]
				}
			},
			"t2" :
			{
				"path" : "tiles/calciumtrice-outdoor/tileset.png",
				"pos" : "176,112",
				"adjacent" :
				{
					"-1,0": ["t2"],
					"1,0": ["t2"],
					"0,-1": ["t1"],
					"0,1": []
				}
			},
			"t3" :
			{
				"path" : "tiles/calciumtrice-outdoor/tileset.png",
				"pos" : "80,112",
				"adjacent" :
				{
					"-1,0": [],
					"1,0": ["t1"],
					"0,-1": ["t3"],
					"0,1": ["t3"]
				}
			},
			"t4" :
			{
				"path" : "tiles/calciumtrice-outdoor/tileset.png",
				"pos" : "160,112",
				"adjacent" :
				{
					"-1,0": ["t4"],
					"1,0": ["t4"],
					"0,-1": ["t2"],
					"0,1": ["t1"]
				}
			},
			"t5" :
			{
				"path" : "tiles/calciumtrice-outdoor/tileset.png",
				"pos" : "224,112",
				"adjacent" :
				{
					"-1,0": ["t1"],
					"1,0": ["t3"],
					"0,-1": ["t5"],
					"0,1": ["t5"]
				}
			},
			"t6" :
			{
				"path" : "tiles/calciumtrice-outdoor/tileset.png",
				"pos" : "16,112",
				"adjacent" :
				{
					"-1,0": ["t5"],
					"1,0": ["t4"],
					"0,-1": ["t2"],
					"0,1": ["t3"]
				}
			},
			"t7" :
			{
				"path" : "tiles/calciumtrice-outdoor/tileset.png",
				"pos" : "32,112",
				"adjacent" :
				{
					"-1,0": ["t4","t6"],
					"1,0": ["t3","t6"],
					"0,-1": ["t2"],
					"0,1": ["t5"]
				}
			},
			"t8" :
			{
				"path" : "tiles/calciumtrice-outdoor/tileset.png",
				"pos" : "48,112",
				"adjacent" :
				{
					"-1,0": ["t5","t7"],
					"1,0": ["t2"],
					"0,-1": ["t3","t6"],
					"0,1": ["t4","t7","t6"]
				}
			},
			"t9" :
			{
				"path" : "tiles/calciumtrice-outdoor/tileset.png",
				"pos" : "64,112",
				"adjacent" :
				{
					"-1,0": ["t2","t8"],
					"1,0": ["t3","t8"],
					"0,-1": ["t5"],
					"0,1": ["t4","t7","t6"]
				}
			},
			"t10" :
			{
				"path" : "tiles/calciumtrice-outdoor/tileset.png",
				"pos" : "304,128",
				"adjacent" :
				{
					"-1,0": ["t6","t4"],
					"1,0": ["t1","t5"],
					"0,-1": ["t6","t3"],
					"0,1": ["t1","t2"]
				}
			},
			"t11" :
			{
				"path" : "tiles/calciumtrice-outdoor/tileset.png",
				"pos" : "320,128",
				"adjacent" :
				{
					"-1,0": ["t3","t1","t10"],
					"1,0": ["t7","t10","t4"],
					"0,-1": ["t5","t13","t7"],
					"0,1": ["t1","t2"]
				}
			},
			"t12" :
			{
				"path" : "tiles/calciumtrice-outdoor/tileset.png",
				"pos" : "336,128",
				"adjacent" :
				{
					"-1,0": ["t8","t2"],
					"1,0": ["t1","t5","t11"],
					"0,-1": ["t4","t1","t10","t11"],
					"0,1": ["t8","t3","t10"]
				}
			},
			"t13" :
			{
				"path" : "tiles/calciumtrice-outdoor/tileset.png",
				"pos" : "352,128",
				"adjacent" :
				{
					"-1,0": ["t3","t1","t10","t12"],
					"1,0": ["t9","t2","t12"],
					"0,-1": ["t4","t1","t10","t11"],
					"0,1": ["t11","t5","t9"]
				}
			},
			"t14" :
			{
				"path" : "tiles/calciumtrice-outdoor/tileset.png",
				"pos" : "16,144",
				"adjacent" :
				{
					"-1,0": ["t3","t1","t10","t12","t14"],
					"1,0": ["t5","t1","t11","t13","t14"],
					"0,-1": ["t4","t1","t10","t11","t14"],
					"0,1": ["t2","t1","t12","t13","t14"]
				}
			},
			"t15" :
			{
				"path" : "tiles/calciumtrice-outdoor/tileset.png",
				"pos" : "0,144",
				"adjacent" :
				{
					"-1,0": ["t9","t5","t7"],
					"1,0": ["t10","t4","t7"],
					"0,-1": ["t8","t2","t9"],
					"0,1": ["t10","t3","t8"]
				}
			},
			"t16" :
			{
				"path" : "tiles/calciumtrice-outdoor/tileset.png",
				"pos" : "432,128",
				"adjacent" :
				{
					"-1,0": ["t13","t8","t2"],
					"1,0": ["t15","t8","t6","t3"],
					"0,-1": ["t13","t7","t5"],
					"0,1": ["t15","t7","t6","t4"]
				}
			},
			"t17" :
			{
				"path" : "tiles/calciumtrice-outdoor/tileset.png",
				"pos" : "448,128",
				"adjacent" :
				{
					"-1,0": ["t5","t9","t7","t16","t19"],
					"1,0": ["t2","t9","t12","t16"],
					"0,-1": ["t3","t6","t12","t15"],
					"0,1": ["t4","t6","t7","t15","t19"]
				}
			},
			"t18" :
			{
				"path" : "tiles/calciumtrice-outdoor/tileset.png",
				"pos" : "464,128",
				"adjacent" :
				{
					"-1,0": ["t4","t6","t11","t15"],
					"1,0": ["t3","t6","t8","t15","t17"],
					"0,-1": ["t2","t8","t9","t16","t17"],
					"0,1": ["t5","t9","t11","t16"]
				}
			},
			"t19" :
			{
				"path" : "tiles/calciumtrice-outdoor/tileset.png",
				"pos" : "112,0",
				"adjacent" :
				{
					"-1,0": ["t18","t16","t5","t7","t9","t20"],
					"1,0": ["t3","t6","t8","t15","t17","t20"],
					"0,-1": ["t17","t16","t2","t8","t9","t20"],
					"0,1": ["t4","t6","t7","t15","t18","t20"]
				}
			},
			"t20" :
			{
				"path" : "tiles/calciumtrice-outdoor/tileset.png",
				"pos" : "180,0",
				"adjacent" :
				{
					"-1,0": ["t18","t16","t5","t7","t9","t19","t20"],
					"1,0": ["t3","t6","t8","t15","t17","t19","t20"],
					"0,-1": ["t17","t16","t2","t8","t9","t19","t20"],
					"0,1": ["t4","t6","t7","t15","t18","t19","t20"]
				}
			},
			"t21" :
			{
				"path" : "tiles/calciumtrice-outdoor/tileset.png",
				"pos" : "256,0",
				"adjacent" :
				{
					"-1,0": ["t18","t16","t5","t7","t9","t19","t20","t21"],
					"1,0": ["t3","t6","t8","t15","t17","t19","t20","t21"],
					"0,-1": ["t17","t16","t2","t8","t9","t19","t20","t21"],
					"0,1": ["t4","t6","t7","t15","t18","t19","t20","t21"]
				}
			},
			"t22" :
			{
				"path" : "tiles/calciumtrice-outdoor/tileset.png",
				"pos" : "304,0",
				"adjacent" :
				{
					"-1,0": ["t18","t16","t5","t7","t9","t19","t20","t21","t22"],
					"1,0": ["t3","t6","t8","t15","t17","t19","t20","t21","t22"],
					"0,-1": ["t17","t16","t2","t8","t9","t19","t20","t21","t22"],
					"0,1": ["t4","t6","t7","t15","t18","t19","t20","t21","t22"]
				}
			},
			"t23" :
			{
				"path" : "tiles/calciumtrice-outdoor/tileset.png",
				"pos" : "320,0",
				"adjacent" :
				{
					"-1,0": ["t18","t16","t5","t7","t9","t19","t20","t21","t22","t23"],
					"1,0": ["t3","t6","t8","t15","t17","t19","t20","t21","t22","t23"],
					"0,-1": ["t17","t16","t2","t8","t9","t19","t20","t21","t22","t23"],
					"0,1": ["t4","t6","t7","t15","t18","t19","t20","t21","t22","t23"]
				}
			},
			"t24" :
			{
				"path" : "tiles/calciumtrice-outdoor/tileset.png",
				"pos" : "32,144",
				"adjacent" :
				{
					"-1,0": ["t3","t1","t10","t12","t14","t24"],
					"1,0": ["t5","t1","t11","t13","t14","t24"],
					"0,-1": ["t4","t1","t10","t11","t14","t24"],
					"0,1": ["t2","t1","t12","t13","t14","t24"]
				}
			},
			"t25" :
			{
				"path" : "tiles/calciumtrice-outdoor/tileset.png",
				"pos" : "112,144",
				"adjacent" :
				{
					"-1,0": ["t3","t1","t10","t12","t14","t24","t25"],
					"1,0": ["t5","t1","t11","t13","t14","t24","t25"],
					"0,-1": ["t4","t1","t10","t11","t14","t24","t25"],
					"0,1": ["t2","t1","t12","t13","t14","t24","t25"]
				}
			},
			"t26" :
			{
				"path" : "tiles/calciumtrice-outdoor/tileset.png",
				"pos" : "96,144",
				"adjacent" :
				{
					"-1,0": ["t3","t1","t10","t12","t14","t24","t25","t26"],
					"1,0": ["t5","t1","t11","t13","t14","t24","t25","t26"],
					"0,-1": ["t4","t1","t10","t11","t14","t24","t25","t26"],
					"0,1": ["t2","t1","t12","t13","t14","t24","t25","t26"]
				}
			}
		}
	}
}
